braininghub\servlets\SiteServlet.class
braininghub\servlets\WelcomeServlet.class
braininghub\dao\CarDAO.class
braininghub\dao\Car_.class
braininghub\servlets\CarServlet.class
braininghub\dao\Car.class
braininghub\servlets\MainMenuServlet.class
braininghub\servlets\BookingServlet.class
braininghub\dao\CarService.class
