C:\Brainhub\JavaEEPerson5\src\main\java\com\bh12\javaeeperson5\PersonServlet.java
C:\Brainhub\JavaEEPerson5\src\main\java\com\bh12\javaeeperson5\Person.java
C:\Brainhub\JavaEEPerson5\src\main\java\com\bh12\javaeeperson5\PersonService.java
C:\Brainhub\JavaEEPerson5\src\main\java\com\bh12\javaeeperson5\PersonDao.java
