com\bh12\konyhairend\Andras.class
com\bh12\konyhairend\Pohar.class
com\bh12\konyhairend\IsDirty.class
com\bh12\konyhairend\KonyhaiEszkoz.class
com\bh12\konyhairend\SpecialException.class
com\bh12\konyhairend\Tanyer.class
com\bh12\konyhairend\Main.class
